%YAML 1.1
%TAG !u! tag:unity3d.com,2011:
--- !u!78 &1
TagManager:
  serializedVersion: 2
  tags:
  - Enemy
  - Cherry
  - Trap
  - TP1
  - TP2
  - TP3
  - Dialogue
  layers:
  - Default
  - TransparentFX
  - Ignore Raycast
  - 
  - Water
  - UI
  - Ground
  - Interactable
  - Level
  - Enemy
  - Usable
  - Interactable
  - IgnorePlayer
  - Player
  - Cameras
  - LitSprites
  - Destructable
  - EnemyWeapon
  - BossWeakPoint
  - Bullet
  - 
  - 
  - 
  - 
  - 
  - 
  - 
  - 
  - 
  - 
  - PlayerDrop
  - Platform
  m_SortingLayers:
  - name: Background
    uniqueID: 3919248481
    locked: 0
  - name: Water
    uniqueID: 2116099231
    locked: 0
  - name: Ground
    uniqueID: 1406841085
    locked: 0
  - name: Sign
    uniqueID: 336848983
    locked: 0
  - name: Player
    uniqueID: 1537232591
    locked: 0
  - name: Default
    uniqueID: 0
    locked: 0
